Gov 50 Final Project
…
  Atticus Lee

## Packages

library(tidyverse)
library(ggplot2)
library(infer)
library(dplyr)
library(broom)
library(modelsummary)

cwed <- read_csv("cwed.csv")
cwed

# A tibble: 1,386 × 33
   COUNTRY   COUNTRY AB…¹ CCODE  YEAR ISOCODE TOTGEN UEGEN SKGEN  PGEN
   <chr>     <chr>        <dbl> <dbl>   <dbl>  <dbl> <dbl> <dbl> <dbl>
 1 Australia AUS              1  1970      36   NA    NA    NA    NA  
 2 Australia AUS              1  1971      36   18.4   6.3   5.7   6.4
 3 Australia AUS              1  1972      36   19.1   6.7   6     6.4
 4 Australia AUS              1  1973      36   20.5   7.4   6.5   6.7
 5 Australia AUS              1  1974      36   20.2   7.2   6.4   6.6
 6 Australia AUS              1  1975      36   20.2   7.2   6.3   6.7
 7 Australia AUS              1  1976      36   21     7.5   6.6   6.8
 8 Australia AUS              1  1977      36   21.2   7.6   6.7   6.9
 9 Australia AUS              1  1978      36   21.2   7.6   6.6   7.1
10 Australia AUS              1  1979      36   21.2   7.5   6.6   7.1
# … with 1,376 more rows, 24 more variables: APWWage <dbl>,
#   US100 <dbl>, UC1000 <dbl>, SS100 <dbl>, SC1000 <dbl>,
#   MPS100 <dbl>, MPC1000 <dbl>, SPS100 <dbl>, SPC1000 <dbl>,
#   UEQUAL <dbl>, UEDUR <dbl>, UEWAIT <dbl>, UECOV <dbl>,
#   SICKQUAL <dbl>, SICKDUR <dbl>, SICKWAIT <dbl>, SICKCOV <dbl>,
#   PQUAL <dbl>, PFUND <dbl>, AVGPER <dbl>, PENCOV <dbl>, MRET <dbl>,
#   FRET <dbl>, LEXP65 <dbl>, and abbreviated variable name …
…
